trabalho_pipeline/wave.vcd
$date
	Mon Apr 27 07:28:32 2026
$end
$version
	Icarus Verilog
$end
$timescale
	1ps
$end
$scope module tb_RISCVCPU $end
$var wire 1 ! halt $end
$var reg 1 " clock $end
$var reg 1 # reset $end
$var integer 32 $ i [31:0] $end
$scope module cpu $end
$var wire 1 " clock $end
$var wire 1 % flush $end
$var wire 1 & instr_commit $end
$var wire 1 # reset $end
$var wire 1 ' stall $end
$var wire 32 ( imm_s [31:0] $end
$var wire 32 ) imm_i [31:0] $end
$var wire 2 * forwardB [1:0] $end
$var wire 2 + forwardA [1:0] $end
$var wire 32 , branch_target [31:0] $end
$var wire 1 - branch_taken $end
$var wire 5 . MEMWBrd [4:0] $end
$var wire 7 / MEMWBop [6:0] $end
$var wire 5 0 IFIDrs2 [4:0] $end
$var wire 5 1 IFIDrs1 [4:0] $end
$var wire 5 2 IDEXrs2 [4:0] $end
$var wire 5 3 IDEXrs1 [4:0] $end
$var wire 7 4 IDEXop [6:0] $end
$var wire 5 5 EXMEMrd [4:0] $end
$var wire 7 6 EXMEMop [6:0] $end
$var wire 32 7 Bin [31:0] $end
$var wire 32 8 Ain [31:0] $end
$var reg 32 9 EXMEMALUOut [31:0] $end
$var reg 32 : EXMEMB [31:0] $end
$var reg 32 ; EXMEMIR [31:0] $end
$var reg 32 < IDEXA [31:0] $end
$var reg 32 = IDEXB [31:0] $end
$var reg 32 > IDEXIR [31:0] $end
$var reg 32 ? IDEXPC [31:0] $end
$var reg 32 @ IFIDIR [31:0] $end
$var reg 32 A IFIDPC [31:0] $end
$var reg 32 B MEMWBIR [31:0] $end
$var reg 32 C MEMWBValue [31:0] $end
$var reg 32 D PC [31:0] $end
$var reg 1 ! halt $end
$var integer 32 E i [31:0] $end
$scope module branch_unit $end
$var wire 32 F instruction [31:0] $end
$var wire 32 G pc_ex [31:0] $end
$var wire 32 H rs1_value [31:0] $end
$var wire 32 I rs2_value [31:0] $end
$var wire 7 J opcode [6:0] $end
$var wire 32 K branch_imm [31:0] $end
$var reg 1 - branch_taken $end
$var reg 32 L branch_target [31:0] $end
$upscope $end
$scope module forwarding_unit $end
$var wire 7 M exmem_op [6:0] $end
$var wire 5 N exmem_rd [4:0] $end
$var wire 5 O idex_rs1 [4:0] $end
$var wire 5 P idex_rs2 [4:0] $end
$var wire 7 Q memwb_op [6:0] $end
$var wire 5 R memwb_rd [4:0] $end
$var reg 2 S forwardA [1:0] $end
$var reg 2 T forwardB [1:0] $end
$upscope $end
$scope module hazard_unit $end
$var wire 7 U exmem_op [6:0] $end
$var wire 5 V exmem_rd [4:0] $end
$var wire 7 W idex_op [6:0] $end
$var wire 5 X idex_rs1 [4:0] $end
$var wire 5 Y idex_rs2 [4:0] $end
$var reg 1 ' stall $end
$upscope $end
$scope module stats $end
$var wire 1 - branch_taken $end
$var wire 1 Z bypassA_MEM $end
$var wire 1 [ bypassA_WB $end
$var wire 1 \ bypassB_MEM $end
$var wire 1 ] bypassB_WB $end
$var wire 1 " clock $end
$var wire 1 % flush $end
$var wire 1 & instr_commit $end
$var wire 1 # reset $end
$var wire 1 ' stall $end
$var reg 32 ^ branch_taken_count [31:0] $end
$var reg 32 _ bypass_count [31:0] $end
$var reg 32 ` cycle_count [31:0] $end
$var reg 32 a flush_count [31:0] $end
$var reg 32 b instr_count [31:0] $end
$var reg 32 c stall_count [31:0] $end
$upscope $end
$upscope $end
$scope task check_expected $end
$var integer 32 d errors [31:0] $end
$upscope $end
$scope task clear_memories $end
$upscope $end
$scope task load_program_full_dependencies $end
$upscope $end
$scope task print_memory_nonzero $end
$var integer 32 e i [31:0] $end
$upscope $end
$scope task print_registers_nonzero $end
$var integer 32 f i [31:0] $end
$upscope $end
$scope task print_state_nonzero $end
$var integer 32 g i [31:0] $end
$upscope $end
$scope task print_stats $end
$var reg 320 h program_name [319:0] $end
$var real 1 i cpi $end
$upscope $end
$scope task reset_cpu $end
$upscope $end
$scope task run_full_dependencies $end
$upscope $end
$upscope $end
$enddefinitions $end
#0
$dumpvars
r0 i
bx h
bx g
bx f
bx e
bx d
bx c
bx b
bx a
bx `
bx _
bx ^
x]
x\
x[
xZ
bx Y
bx X
bx W
bx V
bx U
bx T
bx S
bx R
bx Q
bx P
bx O
bx N
bx M
bx L
bx0 K
bx J
bx I
bx H
bx G
bx F
bx E
bx D
bx C
bx B
bx A
bx @
bx ?
bx >
bx =
bx <
bx ;
bx :
bx 9
bx 8
bx 7
bx 6
bx 5
bx 4
bx 3
bx 2
bx 1
bx 0
bx /
bx .
0-
bx ,
bx +
bx *
bx )
bx (
x'
x&
0%
b10000000000 $
1#
0"
x!
$end
#5000
0]
0[
b0 8
b0 H
b0 7
b0 I
0\
b0 *
b0 T
0Z
b0 +
b0 S
0'
b100 ,
b100 L
b10011 /
b10011 Q
b0 .
b0 R
0&
b10011 6
b10011 M
b10011 U
b0 5
b0 N
b0 V
b10011 4
b10011 W
b0 3
b0 O
b0 X
b0 2
b0 P
b0 Y
b0 )
b0 (
b10011 J
b0 K
b0 1
b0 0
b0 a
b0 ^
b0 _
b0 c
b0 b
b0 `
0!
b0 C
b0 9
b0 :
b0 =
b0 <
b0 ?
b0 G
b0 A
b10011 B
b10011 ;
b10011 >
b10011 F
b10011 @
b0 D
b100000 E
1"
#10000
0"
#15000
b100000 E
1"
#20000
0"
0#
#25000
b1 `
b100 D
b10000010000011 @
1"
#30000
0"
#35000
b11 4
b11 W
b1 (
b11 J
b100000000000 K
b1 1
b101 0
b10000010000011 >
b10000010000011 F
b1000 D
b100 A
b10100001000000100010011 @
b10 `
1"
#40000
0"
#45000
1'
b11 6
b11 M
b11 U
b1 5
b1 N
b1 V
b1000 ,
b1000 L
b10011 4
b10011 W
b1 3
b1 O
b1 X
b101 2
b101 P
b101 Y
b101 )
b10 (
b10011 J
b10 K
b10 1
b1 0
b11 `
b10000010000011 ;
b100 ?
b100 G
b10100001000000100010011 >
b10100001000000100010011 F
b1100 D
b1000 A
b100010000000110010011 @
1"
#50000
0"
#55000
b1010 8
b1010 H
1[
b11 +
b11 S
0'
b11 /
b11 Q
b1 .
b1 R
1&
b10011 6
b10011 M
b10011 U
b0 5
b0 N
b0 V
b10000010000011 B
b1010 C
b10011 ;
b1 c
b100 `
1"
#60000
0"
#65000
b1111 8
b1111 H
0[
1Z
b1 +
b1 S
b10011 /
b10011 Q
b0 .
b0 R
0&
b10 5
b10 N
b10 V
b1100 ,
b1100 L
b10 3
b10 O
b10 X
b1 2
b1 P
b1 Y
b1 )
b11 (
b100000000010 K
b0 1
b11 0
b1 _
b1 b
b101 `
b10011 B
b0 C
b10100001000000100010011 ;
b1111 9
b1000 ?
b1000 G
b100010000000110010011 >
b100010000000110010011 F
b10000 D
b1100 A
b1100000010001000100011 @
1"
#70000
0"
#75000
b10000 7
b10000 I
1\
b1 *
b1 T
0Z
b0 +
b0 S
b10 .
b10 R
1&
b11 5
b11 N
b11 V
b0 8
b0 H
b10000 ,
b10000 L
b100011 4
b100011 W
b0 3
b0 O
b0 X
b11 2
b11 P
b11 Y
b11 )
b100 (
b100011 J
b100 K
b11 1
b1010 0
b10100001000000100010011 B
b1111 C
b100010000000110010011 ;
b10000 9
b1100 ?
b1100 G
b1100000010001000100011 >
b1100000010001000100011 F
b10100 D
b10000 A
b101000011000001000010011 @
b10 _
b110 `
1"
#80000
0"
#85000
b10000 8
b10000 H
1[
b10 +
b10 S
0\
b0 *
b0 T
b11 .
b11 R
b100011 6
b100011 M
b100011 U
b100 5
b100 N
b100 V
b0 7
b0 I
b10100 ,
b10100 L
b10011 4
b10011 W
b11 3
b11 O
b11 X
b1010 2
b1010 P
b1010 Y
b1010 )
b10011 J
b100 1
b100 0
b11 _
b10 b
b111 `
b100010000000110010011 B
b10000 C
b10000 :
b1100000010001000100011 ;
b100 9
b10000 ?
b10000 G
b101000011000001000010011 >
b101000011000001000010011 F
b11000 D
b10100 A
b10000100000011001100011 @
1"
#90000
0"
#95000
1&
1%
1-
b11010 7
b11010 I
b11010 8
b11010 H
0[
1\
b1 *
b1 T
1Z
b1 +
b1 S
b100011 /
b100011 Q
b100 .
b100 R
b10011 6
b10011 M
b10011 U
b100000 ,
b100000 L
b1100011 4
b1100011 W
b100 3
b100 O
b100 X
b100 2
b100 P
b100 Y
b100 )
b1100 (
b1100011 J
b1100 K
b0 1
b11 0
b1100000010001000100011 B
b0 :
b101000011000001000010011 ;
b11010 9
b10100 ?
b10100 G
b10000100000011001100011 >
b10000100000011001100011 F
b11100 D
b11000 A
b110001100000000001010010011 @
b100 _
b11 b
b1000 `
1"
#100000
0"
#105000
0\
b0 *
b0 T
0Z
b0 +
b0 S
b10011 /
b10011 Q
b0 8
b0 H
b0 7
b0 I
b1100011 6
b1100011 M
b1100011 U
b1100 5
b1100 N
b1100 V
b100 ,
b100 L
0%
0-
b10011 4
b10011 W
b0 3
b0 O
b0 X
b0 2
b0 P
b0 Y
b0 )
b0 (
b10011 J
b0 K
b0 0
b1 a
b1 ^
b101 _
b100 b
b1001 `
b101000011000001000010011 B
b11010 C
b0 9
b11010 :
b10000100000011001100011 ;
b0 ?
b0 G
b0 A
b10011 >
b10011 F
b10011 @
b100000 D
1"
#110000
0"
#115000
b1100011 /
b1100011 Q
b1100 .
b1100 R
b10011 6
b10011 M
b10011 U
b0 5
b0 N
b0 V
b100 1
b1 0
b10000100000011001100011 B
b0 :
b10011 ;
b100100 D
b100000 A
b100100000001110010011 @
b101 b
b1010 `
1"
#120000
0"
#125000
b1010 7
b1010 I
b11010 8
b11010 H
b10011 /
b10011 Q
b0 .
b0 R
0&
b100100 ,
b100100 L
b100 3
b100 O
b100 X
b1 2
b1 P
b1 Y
b1 )
b111 (
b100000000110 K
b0 1
b0 0
b110 b
b1011 `
b10011 B
b0 C
b100000 ?
b100000 G
b100100000001110010011 >
b100100000001110010011 F
b1010 =
b11010 <
b101000 D
b100100 A
b1011 @
1"
#130000
0"
#135000
b0 7
b0 I
b0 8
b0 H
b111 5
b111 N
b111 V
b101000 ,
b101000 L
b1011 4
b1011 W
b0 3
b0 O
b0 X
b0 2
b0 P
b0 Y
b0 )
b0 (
b1011 J
b0 K
b1010 :
b100100000001110010011 ;
b11011 9
b100100 ?
b100100 G
b1011 >
b1011 F
b0 =
b0 <
b101100 D
b101000 A
b10011 @
b1100 `
1"
#140000
0"
#145000
b111 .
b111 R
1&
b1011 6
b1011 M
b1011 U
b0 5
b0 N
b0 V
b101100 ,
b101100 L
b10011 4
b10011 W
b10011 J
b1101 `
b100100000001110010011 B
b11011 C
b0 :
b1011 ;
b101000 ?
b101000 G
b10011 >
b10011 F
b110000 D
b101100 A
1"
#150000
0"
#155000
0&
b1011 /
b1011 Q
b0 .
b0 R
b10011 6
b10011 M
b10011 U
b110000 ,
b110000 L
b1011 B
b10011 ;
b0 9
b101100 ?
b101100 G
b110100 D
b110000 A
b111 b
b1110 `
1"
#160000
0"
#165000
b1111 `
1!
1"
#170000
0"
#175000
b10000 `
b100000 g
b0 d
r2.142857142857143 i
b110011001110101011011000110110001011111011001000110010101110000011001010110111001100100011001010110111001100011011010010110010101110011 h
1"
